{
    "version": 1,
    "notSupportedLots": [
        {
          "measurementItem": 1,
          "lotNumber": "G180C1900",
          "testLotNumber": "G188A0000"
        },
        {
          "measurementItem": 2,
          "lotNumber": "H180E2800",
          "testLotNumber": "H188A0000"
        },
        {
          "measurementItem": 3,
          "lotNumber": "",
          "testLotNumber": "C188A0000"
        },
        {
          "measurementItem": 4,
          "lotNumber": "U180F1000",
          "testLotNumber": "U188A0000"
        },
        {
          "measurementItem": 9,
          "lotNumber": "",
          "testLotNumber": "T188A0000"
        }
    ],
    "lotInfos": [
        {
            "measurementItem": 1,
            "lotNumber": "G188A0000",
            "expirationDate": 2201,
            "formula": {
                "formulaNumber": "A1905-14-G188A0000-01"
            }
        },
        {
            "measurementItem": 1,
            "lotNumber": "G181A1100",
            "expirationDate": 2112,
            "formula": {
                "formulaNumber": "A1905-14-G181A1100-01"
            }
        },
        {
            "measurementItem": 2,
            "lotNumber": "H188A0000",
            "expirationDate": 2201,
            "formula": {
                "formulaNumber": "A1905-14-H188A0000-01"
            }
        },
    ]
}

