{
    "version": 2,
    "notSupportedLots": [
        {
          "measurementItem": 1,
          "lotNumber": "G180C1900",
          "testLotNumber": "G188A0000"
        },
        {
          "measurementItem": 2,
          "lotNumber": "H180E2800",
          "testLotNumber": "H188A0000"
        },
        {
          "measurementItem": 3,
          "lotNumber": "",
          "testLotNumber": "C188A0000"
        },
        {
          "measurementItem": 4,
          "lotNumber": "U180F1000",
          "testLotNumber": "U188A0000"
        },
        {
          "measurementItem": 9,
          "lotNumber": "",
          "testLotNumber": "T188A0000"
        }
    ],
    "lotInfos": [
        {
            "measurementItem": 1,
            "lotNumber": "G188A0000",
            "expirationDate": 2201,
            "formula": {
                "formulaNumber": "A2105-14-G188A0000-01"
            }
        },
        {
            "measurementItem": 2,
            "lotNumber": "H188A0000",
            "expirationDate": 2201,
            "formula": {
                "formulaNumber": "A2105-14-H188A0000-01"
            }
        },
        {
            "measurementItem": 3,
            "lotNumber": "C188A0000",
            "expirationDate": 2201,
            "formula": {
                "formulaNumber": "A2105-14-C188A0000-01"
            }
        },
        {
            "measurementItem": 4,
            "lotNumber": "U188A0000",
            "expirationDate": 2201,
            "formula": {
                "formulaNumber": "A2105-14-U188A0000-01"
            }
        }
    ]
}

