{
    "version": 1,
    "cameraSettings":[
        {
            "itemId": 1,
            "measuringTime": 15,
            "stdThreshold": 3,
            "timeToModifyExposure": 10,
            "valueToModifyExposure": 1,
            "awbTemp": 3300,
            "awbTint": -50,
            "lensPosition": 0.0,
            "initExposure": 0,
            "calibEndExposure": 0.5,
            "enableCalibEndExposure": true,
            "enableHDRSetting" : false,
            "enableAdjustFirstData" : 0,
            "findIslandUsingRGB": -1,
            "islandConst": 0,
            "islandModifyingConst": 0,
            "percentileRatio": 0.95
        },
        {
            "itemId": 2,
            "measuringTime": 5,
            "stdThreshold": 2,
            "timeToModifyExposure": 3,
            "valueToModifyExposure": 2,
            "awbTemp": 5000,
            "awbTint": -40,
            "lensPosition": 0.0,
            "initExposure": 0,
            "calibEndExposure": 0,
            "enableCalibEndExposure": false,
            "enableHDRSetting" : false,
            "enableAdjustFirstData" : 0,
            "findIslandUsingRGB": -1,
            "islandConst": 0,
            "islandModifyingConst": 0,
            "percentileRatio": 0.95
        },
        {
            "itemId": 3,
            "measuringTime": 60,
            "stdThreshold": 3,
            "timeToModifyExposure": 10,
            "valueToModifyExposure": 1,
            "awbTemp": 3300,
            "awbTint": -50,
            "lensPosition": 0.0,
            "initExposure": 0,
            "calibEndExposure": 0.5,
            "enableCalibEndExposure": true,
            "enableHDRSetting" : false,
            "enableAdjustFirstData" : 0,
            "findIslandUsingRGB": -1,
            "islandConst": 0,
            "islandModifyingConst": 0,
            "percentileRatio": 0.95
        },
        {
            "itemId": 4,
            "measuringTime": 15,
            "stdThreshold": 3,
            "timeToModifyExposure": 10,
            "valueToModifyExposure": 1,
            "awbTemp": 3300,
            "awbTint": -50,
            "lensPosition": 0.0,
            "initExposure": 0,
            "calibEndExposure": 0.5,
            "enableCalibEndExposure": true,
            "enableHDRSetting" : false,
            "enableAdjustFirstData" : 0,
            "findIslandUsingRGB": -1,
            "islandConst": 0,
            "islandModifyingConst": 0,
            "percentileRatio": 0.95
        }
    ]
}

