{
    "version": 4,
    "cameraSettings":[
        {
            "itemId": 1,
            "measuringTime": 15,
            "stdThreshold": 1,
            "stdUsingRGB": 0,
            "timeToModifyExposure": 10,
            "valueToModifyExposure": 1,
            "awbTemp": 3400,
            "awbTint": 0,
            "lensPosition": 1.0,
            "initExposure": -0.5,
            "calibEndExposure": -1.5,
            "enableCalibEndExposure": true,
            "enableHDRSetting" : true,
            "enableAdjustFirstData" : 0,
            "findIslandUsingRGB": 0,
            "islandConst": 50,
            "islandModifyingConst": 40,
            "percentileRatio": 0.5,
            "grayCalibConstants": [-0.23, 0.32, -1, 130.4]
        },
        {
            "itemId": 2,
            "measuringTime": 5,
            "stdThreshold": 1,
            "stdUsingRGB": 0,
            "timeToModifyExposure": 3,
            "valueToModifyExposure": 1,
            "awbTemp": 4000,
            "awbTint": -100,
            "lensPosition": 1.0,
            "initExposure": -0.5,
            "calibEndExposure": -1.5,
            "enableCalibEndExposure": true,
            "enableHDRSetting" : true,
            "enableAdjustFirstData" : 0,
            "findIslandUsingRGB": 1,
            "islandConst": 50,
            "islandModifyingConst": 40,
            "percentileRatio": 0.5,
            "grayCalibConstants": [-0.14, 0.24, -1, 130.4]
        },
        {
            "itemId": 3,
            "measuringTime": 40,
            "stdThreshold": 1,
            "stdUsingRGB": 0,
            "timeToModifyExposure": 35,
            "valueToModifyExposure": 1.5,
            "awbTemp": 3400,
            "awbTint": 0,
            "lensPosition": 1.0,
            "initExposure": -0.5,
            "calibEndExposure": 0,
            "enableCalibEndExposure": false,
            "enableHDRSetting" : true,
            "enableAdjustFirstData": -0.3,
            "findIslandUsingRGB": 0,
            "islandConst": 50,
            "islandModifyingConst": 150,
            "percentileRatio": 0.9,
            "grayCalibConstants": [-0.23, 0.32, -1, 130.4]
        },
        {
            "itemId": 4,
            "measuringTime": 15,
            "stdThreshold": 1,
            "stdUsingRGB": 0,
            "timeToModifyExposure": 10,
            "valueToModifyExposure": 0.5,
            "awbTemp": 3500,
            "awbTint": -100,
            "lensPosition": 1.0,
            "initExposure": -0.5,
            "calibEndExposure": -1.5,
            "enableCalibEndExposure": true,
            "enableHDRSetting" : true,
            "enableAdjustFirstData" : 0,
            "findIslandUsingRGB": 1,
            "islandConst": 50,
            "islandModifyingConst": 40,
            "percentileRatio": 0.5,
            "grayCalibConstants": [-0.37, 1.18, -1, 130.4]
        },
        {
            "itemId": 9,
            "measuringTime": 30,
            "stdThreshold": 1,
            "stdUsingRGB": 1,
            "timeToModifyExposure": 20,
            "valueToModifyExposure": 0.5,
            "awbTemp": 9000,
            "awbTint": 90,
            "lensPosition": 1.0,
            "initExposure": 0,
            "calibEndExposure": 0,
            "enableCalibEndExposure": false,
            "enableHDRSetting" : true,
            "enableAdjustFirstData": 0,
            "findIslandUsingRGB": 0,
            "islandConst": 30,
            "islandModifyingConst": 0,
            "percentileRatio": 0.5,
            "grayCalibConstants": [-0.23, 0.32, -1, 130.4]
        }
    ],
    "grayCalibFormula": "if @rd15 > 0\r\n    $grayValue = 2 * @gv1 - @gv2\r\n    $logDelta = log(@rd15)\r\n    $reviseValue = (@cv0 * $logDelta + @cv1) * @cv2 * ($grayValue - @cv3)\r\n    $result = @rd15 + $reviseValue\r\nelse\r\n    $result = @rd15\r\nendif",
    "grayCalibSettings": {
        "lensPosition": 1.0,
        "awbTemp": 4000,
        "awbTint": -20,
        "findIslandUsingRGB": 0,
        "islandConst": 150,
        "initExposure": -0.5,
        "value1Exposure": -2,
        "value2Exposure": -1
    },
    "grayCalibEnable": false
}
