{
    "guidanceString": [
        {
            "launguageCode" : "en",
            "languageLocale" : "US",
            "guidanceHowToStart" : "After inserting cartridge, place your phone down so the back of your phone is facing up.",
            "guidanceWait" : "Please wait for a moment.",
            "waitBlood" : "Apply blood into the cartridge. Do not lift your finger until you hear a notification sound.",
            "appliedBlood" : "Measuring Started.",
            "notifyLeftTime" : "%@seconds left.",
            "resultOfNormalCase" : "%@ result is %@ %@ per %@.",
            "resultOfHigherCase" : "Your result is higher than the measuring range avaliable.",
            "resultOfLowerCase" : "Your result is lower than the measuring range avaliable.",
            "unitMiligram" : "milligram",
            "unitGram" : "gram",
            "unitDeciliter" : "deciliter",
            "unitMillimol" : "millimol",
            "unitLiter" : "liter",
            "unitUnit" : "unit",
            "unitMicrokatal" : "microkatal"
        },
        {
            "launguageCode" : "ko",
            "languageLocale" : "KR",
            "guidanceHowToStart" : "카트리지를 끼우고 스마트폰의 뒷면이 보이도록 놓아주세요.",
            "guidanceWait" : "잠시만 기다려주세요.",
            "waitBlood" : "채혈을 한 후 혈액을 주입구에 넣습니다. 알림음이 나오면 손가락을 떼주세요.",
            "appliedBlood" : "측정이 시작되었습니다.",
            "notifyLeftTime" : "%@초 남았습니다.",
            "resultOfNormalCase" : "%@s 측정결과는 %@s %@s Per %@s 입니다.",
            "resultOfHigherCase" : "측정결과가 측정 범위보다 높습니다.",
            "resultOfLowerCase" : "측정결과가 측정 범위보다 낮습니다.",
            "unitMiligram" : "밀리그램",
            "unitGram" : "그램",
            "unitDeciliter" : "데시리터",
            "unitMillimol" : "밀리몰",
            "unitLiter" : "리터",
            "unitUnit" : "유니트",
            "unitMicrokatal" : "마이크로카탈"
        }
    ]
}

